美国
美国加利福尼亚
http://64.62.208.199:8099/
美国弗吉尼亚阿什本
http://150.136.166.31:8686/
美国马里兰巴尔的摩
http://40.143.66.27:8888/

越南
胡志明
http://118.69.98.66:8888/

俄罗斯
西伯利亚
http://37.193.45.58:81/
http://37.205.83.56:81/
http://37.193.22.14:81/

俄罗斯特维尔
http://94.241.56.221:8888/
俄罗斯雅罗斯拉夫尔
http://109.161.114.151:81/
俄罗斯车里雅宾斯克
http://91.206.55.55:22222/

马来西亚

印度尼西亚

新加坡

日本

韩国

香港
http://tiv22.guojian365.com/
http://161.81.100.69:8085/
http://14.198.60.163:4022/
http://103.20.222.221:4022/
http://www.yjwz02.com/
http://ti010.cc/
http://yjspw80.com/
http://www.xp866.com/

台湾
中华电信
http://114.35.70.190:4022/
http://106.107.228.246:8888/
http://112.105.58.153:8888/
教育网
http://120.114.99.10:8888/

青海
电信
http://220.167.170.228:4000/udp/239.120.1.41:8220
联通
http://139.170.104.41:8000/udp/239.120.1.64:8332
http://lovegfs.top:8000/udp/239.120.1.64:8332

西藏
电信
http://101.249.251.70:4022/udp/

宁夏
电信
udp/239.121.4.94:8538
udp/239.121.4.113:8636

新疆
电信
http://home.caidao520.xyz:8889/udp/238.125.4.54:5140
http://222.80.13.71:8889/udp/238.125.4.54:5140
http://office.gofaraway.top:888/udp/238.125.3.174:5140

甘肃
http://[2408:8474:340:35fb:d465:eeff:fe3d:d484]:8080/
电信
http://60.164.228.119:4040/udp/239.255.30.83:8231
http://www.pr666.site:4040/udp/239.255.30.83:8231

上海
电信
http://114.95.242.168:8888/udp/239.45.3.50:5140
http://routers.wrlaiwuxia.fun:8888/udp/239.45.3.50:5140
http://61.170.190.32:8000/udp/239.45.3.50:5140

广西

贺州电信
http://220.173.254.174:10000/udp/239.81.0.102:4056
http://fr.jtmi.vip:10000/udp/239.81.0.102:4056
http://rss.jtmi.vip:10000/udp/239.81.0.102:4056
http://sxmd.fun:10000/udp/239.81.0.102:4056
桂林电信
http://www.51nas.top:4022/udp/239.81.0.177:4056

南宁电信
http://180.139.175.227:8088/udp/239.81.0.177:4056
http://opdf.top:8088/udp/239.81.0.177:4056
http://www.guniang18.cn:4022/udp/239.81.0.177:4056
http://202.103.213.163:8888/udp/239.81.0.177:4056

联通
udp/225.38.229.129:4000
udp/225.38.229.129:4000

陕西

渭南电信
http://36.46.98.222:8009/udp/239.112.205.223:5140
http://219.145.236.18:8999/udp/239.112.205.223:5140
http://170329.xyz:8999/udp/239.112.205.223:5140
http://219.145.236.38:8999/udp/239.112.205.223:5140
http://170329.xyz:8999/udp/239.112.205.223:5140

黑龙江
联通
http://113.9.132.96:5009/udp/229.58.190.4:5000
http://iptv.ikuai.tv:8003/udp/229.58.190.4:5000
http://210.76.37.59:8013/udp/229.58.190.4:5000
电信
http://112.103.234.85:20000/udp/
http://42.185.57.137:8006/udp/
http://iptv.ikuai.tv:8006/udp/

移动
udp/239.0.0.46:5140

云南
电信
http://106.59.3.161:55555/udp/239.200.200.15:8856
联通
http://180.130.108.28:2323/udp/

河北

联通
http://60.4.3.18:8888/udp/239.253.92.52:6021
http://aaans15.dynv6.net:8888/udp/239.253.92.52:6021
http://121.29.123.58:8888/udp/239.253.92.52:6021

电信
http://www.biaowen.net:4022/udp/239.254.200.45:8008

山东

德州电信
http://182.32.184.46:8888/udp/239.21.1.116:5002
http://dsa.zfgzj.xyz:8888/udp/239.21.1.116:5002
http://shasha311.top:9999/udp/239.21.1.116:5002

烟台电信
http://sunny2017.publicvm.com:4022/udp/239.21.1.116:5002

淄博电信
http://182.34.182.126:4022/udp/239.21.1.116:5002

济南电信
http://113.128.52.87:8888/udp/239.21.1.116:5002
http://www.lansefengye.cn:8888/udp/239.21.1.116:5002
http://houduan.lansefengye.cn:8888/udp/239.21.1.116:5002
http://qianduan.lansefengye.cn:8888/udp/239.21.1.116:5002
http://lansefengye.cn:8888/udp/239.21.1.116:5002

潍坊联通
http://27.205.43.28:4022/udp/239.253.246.77:8000
济南/青岛联通
http://20151110.xyz:8888/udp/239.253.242.77:8000

烟台联通
http://27.216.75.157:2222/udp/239.253.248.77:8000
http://xuweihome.vip:2222/udp/239.253.248.77:8000
菏泽联通
udp/239.236.236.77:8000

济南        242
泰安        240
德州        250
济宁        244
威海        230
菏泽        236
烟台        248
潍坊        246
莱芜        222
滨州        234
聊城        228
日照        224
淄博        252
东营        232
青岛        254

湖北

武汉电信
http://vig0r.synology.me:8888/udp/239.69.1.204:10866
http://221.232.119.13:8088/udp/239.69.1.204:10866
http://cc.ikhs.cn:8880/udp/239.69.1.204:10866
http://221.234.135.108:8800/udp/239.69.1.204:10866
http://219.140.27.248:8888/udp/239.69.1.204:10866
联通
udp/228.0.0.125:6108

重庆

重庆联通
http://113.205.103.85:8004/udp/225.0.4.186:7980
http://27.10.127.56:8005/udp/225.0.4.186:7980

电信
http://183.65.9.200:8888/udp/235.254.199.52:7980
http://14.107.69.0:6666/udp/235.254.199.52:7980


山西

太原联通
http://60.221.41.192:8003/rtp/226.0.1.172:3096
http://60.221.41.192:8003/rtp/226.0.1.83:2005
http://60.221.41.192:8003/rtp/226.0.1.81:2003
http://60.221.41.192:8003/rtp/226.0.1.85:2001
http://60.221.41.192:8003/rtp/226.0.1.84:2002
http://60.221.41.192:8003/rtp/226.0.1.82:2004
http://60.221.41.192:8003/rtp/226.0.1.200:2006
http://118.81.217.57:8004/rtp/226.0.1.200:2006
http://171.117.151.93:9999/rtp/226.0.1.200:2006
http://171.126.16.193:4000/udp/226.0.1.83:2005
山西省 忻州联通
http://183.188.21.241:6001/udp/226.0.1.200:2006
http://171.119.204.19:6001/udp/226.0.1.200:2006
http://118.79.139.41:7000/udp/226.0.1.200:2006
电信
http://110.178.52.61:8083/udp/238.1.40.1:10001
http://113.26.65.10:8083/udp/238.1.40.1:10001

江苏

http://49.77.211.135:8000/udp/239.49.8.34:8612
扬州电信
udp/239.49.8.34:8612
无锡电信
udp/239.49.8.34:8612
http://itstar.top:4000/udp/239.49.8.34:8612
盐城电信
http://49.69.77.97:8686/udp/239.49.9.3:6000

苏州电信
http://117.82.57.87:8888/udp/239.49.9.3:6000
http://180.117.53.160:4022/udp/239.49.9.3:6000
http://49.84.220.82:8887/udp/239.49.9.3:6000
徐州电信
udp/239.49.9.3:6000
泰州电信
http://yuujinchou.com:8888/udp/239.49.8.19:9614

镇江电信
http://58.217.15.140:4000/udp/239.49.8.19:9614
http://180.118.219.153:3000/udp/239.49.8.19:9614

南京电信
http://49.77.211.135:8000/udp/239.49.8.19:9614

连云港电信
http://49.88.10.46:8888/udp/239.49.8.19:9614
常州电信
udp/239.49.8.19:9614
宿迁电信
udp/239.49.8.19:9614
淮阴电信

南通联通
udp/157.0.143.37:554

浙江

杭州电信
http://220.184.124.249:4022/udp/233.50.201.118:5140
http://115.239.75.185:8888/udp/233.50.201.118:5140
http://www.chengxueguo.cn:8888/udp/233.50.201.118:5140
宁波电信
http://www.372583307.top:4022/udp/233.50.201.168:5140

湖南

长沙电信
http://175.13.226.152:8888/udp/239.76.254.132:9000
http://175.13.226.6:8888/udp/239.76.254.132:9000
http://175.13.226.175:8888/udp/239.76.254.132:9000
http://175.13.226.186:8888/udp/239.76.254.132:9000
http://124.230.56.121:55555/udp/239.76.254.132:9000


长沙联通
http://42.48.50.138:3333/udp/239.86.1.1:1234

长沙移动
http://111.23.136.71:9443/udp/239.1.0.52:1025

天津

天津联通
http://appstar.site:8888/udp/225.1.2.192:5002
http://vpn.calichina.cn:5002/udp/225.1.2.192:5002
http://111.167.5.34:5002/udp/225.1.2.192:5002
http://218.67.179.121:8888/udp/225.1.2.192:5002

天津电信
udp/239.5.1.30:5000

内蒙古
电信
http://1.183.178.135:8097/udp/239.29.0.2:5000
http://www.tlzsj.top:8097/udp/239.29.0.2:5000

联通
http://110.19.171.124:8888/udp/239.125.1.59:5000
http://1.30.178.25:8800/udp/239.125.1.59:5000
http://iptv.30027.top:8800/udp/239.125.1.59:5000
http://w.30027.top:8800/udp/239.125.1.59:5000
http://home.zuopeng.club:8888/udp/239.125.1.59:5000
http://iptv.30027.top:8800/udp/239.125.2.65:4120
http://w.30027.top:8800/udp/239.125.2.65:4120
http://1.30.178.25:8800/udp/239.125.2.65:4120
http://110.19.171.124:8888/udp/239.125.2.65:4120
http://home.zuopeng.club:8888/udp/239.125.2.65:4120

移动
http://39.153.157.102:8888/udp/

广东

广州电信
http://119.130.207.212:4022/udp/239.77.1.19:5146
http://61.140.191.252:8686/udp/239.77.1.19:5146
http://219.137.64.28:4022/udp/239.77.1.19:5146
http://120.237.241.82:4000/udp/239.77.1.19:5146
http://113.65.66.82:10000/udp/239.77.0.166:5146
http://163.204.188.235:4000/udp/239.77.0.166:5146
http://119.129.203.247:4000/udp/239.77.0.166:5146
http://wizarkid.vip:4000/udp/239.77.0.166:5146

珠江宽频
http://mail.owenxuan.com:10000/udp/225.1.101.5:7523
http://119.34.188.26:10000/udp/225.1.101.5:7523

佛山电信
http://113.70.37.193:3333/udp/239.77.1.19:5146
http://113.69.25.144:4000/udp/239.77.0.166:5146
http://113.69.94.116:4000/udp/239.77.0.166:5146
东莞电信
udp/239.77.1.19:5146
中山电信
http://113.100.14.149:40000/udp/239.77.0.166:5146
http://61.145.31.104:9000/udp/239.77.0.166:5146
珠海电信
http://14.146.78.51:8888/udp/239.77.0.166:5146
深圳电信
http://58.61.148.28:8088/udp/239.77.1.19:5146

深圳移动
udp/239.11.0.78:1025

联通
茂名
udp/239.0.1.3:8008

深圳阿里云
http://120.24.147.89:8087/
https://www.diandianhuikj.com:8087/

浙江

杭州电信
http://220.184.124.249:4022/udp/233.50.200.44:5140
http://115.206.170.85:8888/udp/233.50.200.44:5140
http://125.122.91.173:82/udp/233.50.200.44:5140
金华电信
http://eecc.cc:8888/udp/233.50.200.44:5140
http://115.203.155.213:55555/udp/233.50.200.44:5140
联通
http://wg.lloydind.cn:9999/udp/239.0.1.3:8008

贵州

贵阳电信
http://host.ximu.ink:81/udp/238.255.2.91:5999
udp/238.255.2.91:5999
贵阳联通
udp/239.254.22.105:7000

海南

海口电信
http://112.66.203.175:9999/udp/239.253.64.121:5140
联通
http://150.255.85.200:4022/udp/

河南

郑州联通
http://219.157.248.159:4000/udp/225.1.4.74:1103
http://123.15.227.81:6666/udp/225.1.2.47:10276
商丘联通
udp/225.1.2.47:10276
udp/225.1.2.47:10276
商丘电信
http://1.197.204.28:10000/udp/239.16.20.51:10510
移动
http://117.159.93.130:8888/udp/
济源联通
http://115.53.87.41:8888/udp/225.1.4.73:1102
http://125.40.84.138:8888/udp/225.1.4.73:1102
郑州电信
http://1.197.204.28:10000/udp/239.253.64.120:5140

福建

福州电信
http://lhb.17bysj.com:4022/udp/239.61.4.4:1025
http://121.204.13.243:4022/udp/239.61.4.4:1025
http://117.28.112.108:8888/udp/239.61.4.4:1025
http://117.28.98.24:8888/udp/239.61.4.4:1025
厦门电信
http://110.85.184.115:9999/udp/239.61.4.4:1025
泉州联通
udp/239.255.40.149:8208

辽宁

盘锦电信
http://182.204.157.246:9999/udp/239.33.3.2:22580
http://j4125.hanzhenya.asia:9999/udp/239.33.3.2:22580
http://182.204.157.246:9999/udp/239.33.2.236:22360
http://182.204.157.246:9999/udp/239.33.2.238:22380
http://182.204.157.246:9999/udp/239.33.2.237:22370
http://182.204.157.246:9999/udp/239.33.3.201:24570 
http://182.204.157.246:9999/udp/239.33.2.233:22330
http://182.204.157.246:9999/udp/239.33.5.202:24580
http://182.204.157.246:9999/udp/239.33.2.122:21220
http://182.204.157.246:9999/udp/239.33.2.121:21210
http://182.204.157.246:9999/udp/239.33.2.235:22350
http://182.204.157.246:9999/udp/239.33.2.123:21230
沈阳电信
http://123.245.13.55:9999/udp/239.33.2.123:21230
辽宁联通
udp/232.0.0.88:8890
udp/232.0.0.27:1234

大连联通
http://175.171.199.53:8000/udp/232.0.0.88:8890

移动
udp/232.11.0.41:20160
udp/232.11.0.52:20162

吉林
电信
http://123.172.147.134:8899/udp/239.37.0.8:5540
http://adsl01.hk8.tv:8899/udp/239.37.0.8:5540

四川

成都电信
http://182.138.160.182:8888/udp/239.93.0.41:5140
http://hjb.mba:8888/udp/239.93.0.41:5140
http://hzz.pub:8888/udp/239.93.0.41:5140
http://110.191.213.22:8888/udp/239.93.0.184:5140
http://118.113.193.193:4022/udp/239.93.0.162:2192
http://182.150.109.217:8888/udp/239.93.0.41:5140
http://www.hzz.pub:8888/udp/239.93.0.41:5140
http://222.211.198.59:20000/udp/239.93.0.41:5140
http://caohm.320.io:20000/udp/239.93.0.41:5140
http://222.211.226.51:8888/udp/239.93.0.41:5140
http://gotonas.com:8888/udp/239.93.0.41:5140
http://221.237.34.112:8000/udp/239.93.0.41:5140

乐山电信
udp/239.93.15.249:51231
udp/239.93.15.249:51231

眉山电信
udp/239.93.26.41:5140
四川凉山会理
udp/239.93.41.41:5140
德阳2	
rtp://239.93.2.253:10004
德阳1	
rtp://239.93.3.252:10003
绵阳新闻	
rtp://239.93.4.178:7712
绵阳生活	
rtp://239.93.5.76:8450
广元生活	
rtp://239.93.7.252:3002
广元综合	
rtp://239.93.7.253:3001
巴中文旅	
rtp://239.93.8.34:8198
巴中综合	
rtp://239.93.8.35:8204
遂宁文化	
rtp://239.93.10.26:8150
遂宁综合	
rtp://239.93.11.176:7764
内江综合	
rtp://239.93.13.250:10001
内江科教	
rtp://239.93.13.252:10003
乐山文旅	
rtp://239.93.15.248:51231
乐山新闻	
rtp://239.93.15.249:51231
南充科教	
rtp://239.93.16.79:8468
南充综合	
rtp://239.93.16.98:8582
宜宾新闻	
rtp://239.93.19.251:2001
宜宾公共	
rtp://239.93.19.252:2002
广安文旅	
rtp://239.93.20.37:8216
广安新闻	
rtp://239.93.20.38:8222
达州综合	
rtp://239.93.22.171:7934
达州文化	
rtp://239.93.22.172:7938
雅安文化	
rtp://239.93.25.246:6667
雅安新闻	
rtp://239.93.25.253:6666
眉山综合	
rtp://239.93.27.241:2001
眉山文旅	
rtp://239.93.27.242:2002
资阳新闻	
rtp://239.93.29.220:5140
自贡综合	
rtp://239.93.31.251:4004
自贡公共	
rtp://239.93.31.252:4005
泸州新闻	
rtp://239.93.35.241:5140
泸州科教	
rtp://239.93.35.243:5140
凉山彝语综合	
rtp://239.93.41.249:5140
凉山综合	
rtp://239.93.41.250:1234

攀枝花电信
udp/239.93.32.9:2192
遂宁电信
udp/239.93.11.176:7764

泸州电信
http://www.314369559.xyz:8888/udp/239.93.34.184:5140
http://www.eskimocat.net:8888/udp/239.93.34.184:5140

广安移动
udp/239.11.0.2:5140
http://223.87.160.11:55555/udp/239.11.0.2:5140

安徽

合肥电信
合肥新闻,
http://www.191919.xyz:8888/udp/238.1.78.111:6760
http://114.97.188.168:8888/udp/238.1.78.111:6760
http://114.97.224.46:9999/udp/238.1.78.111:6760

北京

联通
http://home.ipdog.cc:8888/udp/239.3.1.159:8000
http://123.116.132.245:8888/udp/239.3.1.159:8000
http://www.zzmd.fun:8888/udp/239.3.1.159:8000
http://123.118.55.0:8888/udp/239.3.1.159:8000
http://124.65.3.143:20000/udp/239.3.1.159:8000
http://123.120.4.107:4022/udp/239.3.1.159:8000
http://111.196.131.11:20000/udp/239.3.1.159:8000
http://221.220.130.233:4022/udp/239.3.1.159:8000

电信
北京淘电影,http://1.202.10.130:8888/udp/225.1.8.38:8002
http://115.171.58.160:4022/udp/225.1.8.38:8002
移动
udp/228.1.1.190:8000
